waveform/InstMem_Tb.vcd
$date
	Wed Apr 19 16:17:18 2023
$end
$version
	Icarus Verilog
$end
$timescale
	1s
$end
$scope module InstMem_Tb $end
$var wire 32 ! rd_dout0 [31:0] $end
$var parameter 32 " depth $end
$var parameter 120 # initFile $end
$var reg 1 $ clk $end
$var reg 7 % rd_addr0 [6:0] $end
$var reg 1 & rst $end
$var reg 1 ' we0 $end
$var reg 7 ( wr_addr0 [6:0] $end
$var reg 32 ) wr_din0 [31:0] $end
$var integer 32 * idx [31:0] $end
$scope module m $end
$var wire 1 $ clk $end
$var wire 7 + rd_addr0 [6:0] $end
$var wire 32 , rd_dout0 [31:0] $end
$var wire 1 & rst $end
$var wire 1 ' we0 $end
$var wire 7 - wr_addr0 [6:0] $end
$var wire 32 . wr_din0 [31:0] $end
$var parameter 32 / DEPTH $end
$var parameter 32 0 WIDTH $end
$scope begin $ivl_for_loop0 $end
$var integer 32 1 i [31:0] $end
$upscope $end
$scope begin $ivl_for_loop1 $end
$var integer 32 2 i [31:0] $end
$upscope $end
$scope task printAll $end
$scope begin $ivl_for_loop2 $end
$upscope $end
$upscope $end
$upscope $end
$scope task readAll $end
$scope begin $ivl_for_loop4 $end
$upscope $end
$upscope $end
$scope task writeAll $end
$scope begin $ivl_for_loop3 $end
$upscope $end
$upscope $end
$upscope $end
$scope module InstMem_Tb $end
$scope module m $end
$var reg 32 3 \mem[0] [31:0] $end
$upscope $end
$upscope $end
$scope module InstMem_Tb $end
$scope module m $end
$var reg 32 4 \mem[1] [31:0] $end
$upscope $end
$upscope $end
$scope module InstMem_Tb $end
$scope module m $end
$var reg 32 5 \mem[2] [31:0] $end
$upscope $end
$upscope $end
$scope module InstMem_Tb $end
$scope module m $end
$var reg 32 6 \mem[3] [31:0] $end
$upscope $end
$upscope $end
$scope module InstMem_Tb $end
$scope module m $end
$var reg 32 7 \mem[4] [31:0] $end
$upscope $end
$upscope $end
$scope module InstMem_Tb $end
$scope module m $end
$var reg 32 8 \mem[5] [31:0] $end
$upscope $end
$upscope $end
$scope module InstMem_Tb $end
$scope module m $end
$var reg 32 9 \mem[6] [31:0] $end
$upscope $end
$upscope $end
$scope module InstMem_Tb $end
$scope module m $end
$var reg 32 : \mem[7] [31:0] $end
$upscope $end
$upscope $end
$scope module InstMem_Tb $end
$scope module m $end
$var reg 32 ; \mem[8] [31:0] $end
$upscope $end
$upscope $end
$scope module InstMem_Tb $end
$scope module m $end
$var reg 32 < \mem[9] [31:0] $end
$upscope $end
$upscope $end
$scope module InstMem_Tb $end
$scope module m $end
$var reg 32 = \mem[10] [31:0] $end
$upscope $end
$upscope $end
$scope module InstMem_Tb $end
$scope module m $end
$var reg 32 > \mem[11] [31:0] $end
$upscope $end
$upscope $end
$scope module InstMem_Tb $end
$scope module m $end
$var reg 32 ? \mem[12] [31:0] $end
$upscope $end
$upscope $end
$scope module InstMem_Tb $end
$scope module m $end
$var reg 32 @ \mem[13] [31:0] $end
$upscope $end
$upscope $end
$scope module InstMem_Tb $end
$scope module m $end
$var reg 32 A \mem[14] [31:0] $end
$upscope $end
$upscope $end
$scope module InstMem_Tb $end
$scope module m $end
$var reg 32 B \mem[15] [31:0] $end
$upscope $end
$upscope $end
$scope module InstMem_Tb $end
$scope module m $end
$var reg 32 C \mem[16] [31:0] $end
$upscope $end
$upscope $end
$scope module InstMem_Tb $end
$scope module m $end
$var reg 32 D \mem[17] [31:0] $end
$upscope $end
$upscope $end
$scope module InstMem_Tb $end
$scope module m $end
$var reg 32 E \mem[18] [31:0] $end
$upscope $end
$upscope $end
$scope module InstMem_Tb $end
$scope module m $end
$var reg 32 F \mem[19] [31:0] $end
$upscope $end
$upscope $end
$scope module InstMem_Tb $end
$scope module m $end
$var reg 32 G \mem[20] [31:0] $end
$upscope $end
$upscope $end
$scope module InstMem_Tb $end
$scope module m $end
$var reg 32 H \mem[21] [31:0] $end
$upscope $end
$upscope $end
$scope module InstMem_Tb $end
$scope module m $end
$var reg 32 I \mem[22] [31:0] $end
$upscope $end
$upscope $end
$scope module InstMem_Tb $end
$scope module m $end
$var reg 32 J \mem[23] [31:0] $end
$upscope $end
$upscope $end
$scope module InstMem_Tb $end
$scope module m $end
$var reg 32 K \mem[24] [31:0] $end
$upscope $end
$upscope $end
$scope module InstMem_Tb $end
$scope module m $end
$var reg 32 L \mem[25] [31:0] $end
$upscope $end
$upscope $end
$scope module InstMem_Tb $end
$scope module m $end
$var reg 32 M \mem[26] [31:0] $end
$upscope $end
$upscope $end
$scope module InstMem_Tb $end
$scope module m $end
$var reg 32 N \mem[27] [31:0] $end
$upscope $end
$upscope $end
$scope module InstMem_Tb $end
$scope module m $end
$var reg 32 O \mem[28] [31:0] $end
$upscope $end
$upscope $end
$scope module InstMem_Tb $end
$scope module m $end
$var reg 32 P \mem[29] [31:0] $end
$upscope $end
$upscope $end
$scope module InstMem_Tb $end
$scope module m $end
$var reg 32 Q \mem[30] [31:0] $end
$upscope $end
$upscope $end
$scope module InstMem_Tb $end
$scope module m $end
$var reg 32 R \mem[31] [31:0] $end
$upscope $end
$upscope $end
$scope module InstMem_Tb $end
$scope module m $end
$var reg 32 S \mem[32] [31:0] $end
$upscope $end
$upscope $end
$scope module InstMem_Tb $end
$scope module m $end
$var reg 32 T \mem[33] [31:0] $end
$upscope $end
$upscope $end
$scope module InstMem_Tb $end
$scope module m $end
$var reg 32 U \mem[34] [31:0] $end
$upscope $end
$upscope $end
$scope module InstMem_Tb $end
$scope module m $end
$var reg 32 V \mem[35] [31:0] $end
$upscope $end
$upscope $end
$scope module InstMem_Tb $end
$scope module m $end
$var reg 32 W \mem[36] [31:0] $end
$upscope $end
$upscope $end
$scope module InstMem_Tb $end
$scope module m $end
$var reg 32 X \mem[37] [31:0] $end
$upscope $end
$upscope $end
$scope module InstMem_Tb $end
$scope module m $end
$var reg 32 Y \mem[38] [31:0] $end
$upscope $end
$upscope $end
$scope module InstMem_Tb $end
$scope module m $end
$var reg 32 Z \mem[39] [31:0] $end
$upscope $end
$upscope $end
$scope module InstMem_Tb $end
$scope module m $end
$var reg 32 [ \mem[40] [31:0] $end
$upscope $end
$upscope $end
$scope module InstMem_Tb $end
$scope module m $end
$var reg 32 \ \mem[41] [31:0] $end
$upscope $end
$upscope $end
$scope module InstMem_Tb $end
$scope module m $end
$var reg 32 ] \mem[42] [31:0] $end
$upscope $end
$upscope $end
$scope module InstMem_Tb $end
$scope module m $end
$var reg 32 ^ \mem[43] [31:0] $end
$upscope $end
$upscope $end
$scope module InstMem_Tb $end
$scope module m $end
$var reg 32 _ \mem[44] [31:0] $end
$upscope $end
$upscope $end
$scope module InstMem_Tb $end
$scope module m $end
$var reg 32 ` \mem[45] [31:0] $end
$upscope $end
$upscope $end
$scope module InstMem_Tb $end
$scope module m $end
$var reg 32 a \mem[46] [31:0] $end
$upscope $end
$upscope $end
$scope module InstMem_Tb $end
$scope module m $end
$var reg 32 b \mem[47] [31:0] $end
$upscope $end
$upscope $end
$scope module InstMem_Tb $end
$scope module m $end
$var reg 32 c \mem[48] [31:0] $end
$upscope $end
$upscope $end
$scope module InstMem_Tb $end
$scope module m $end
$var reg 32 d \mem[49] [31:0] $end
$upscope $end
$upscope $end
$scope module InstMem_Tb $end
$scope module m $end
$var reg 32 e \mem[50] [31:0] $end
$upscope $end
$upscope $end
$scope module InstMem_Tb $end
$scope module m $end
$var reg 32 f \mem[51] [31:0] $end
$upscope $end
$upscope $end
$scope module InstMem_Tb $end
$scope module m $end
$var reg 32 g \mem[52] [31:0] $end
$upscope $end
$upscope $end
$scope module InstMem_Tb $end
$scope module m $end
$var reg 32 h \mem[53] [31:0] $end
$upscope $end
$upscope $end
$scope module InstMem_Tb $end
$scope module m $end
$var reg 32 i \mem[54] [31:0] $end
$upscope $end
$upscope $end
$scope module InstMem_Tb $end
$scope module m $end
$var reg 32 j \mem[55] [31:0] $end
$upscope $end
$upscope $end
$scope module InstMem_Tb $end
$scope module m $end
$var reg 32 k \mem[56] [31:0] $end
$upscope $end
$upscope $end
$scope module InstMem_Tb $end
$scope module m $end
$var reg 32 l \mem[57] [31:0] $end
$upscope $end
$upscope $end
$scope module InstMem_Tb $end
$scope module m $end
$var reg 32 m \mem[58] [31:0] $end
$upscope $end
$upscope $end
$scope module InstMem_Tb $end
$scope module m $end
$var reg 32 n \mem[59] [31:0] $end
$upscope $end
$upscope $end
$scope module InstMem_Tb $end
$scope module m $end
$var reg 32 o \mem[60] [31:0] $end
$upscope $end
$upscope $end
$scope module InstMem_Tb $end
$scope module m $end
$var reg 32 p \mem[61] [31:0] $end
$upscope $end
$upscope $end
$scope module InstMem_Tb $end
$scope module m $end
$var reg 32 q \mem[62] [31:0] $end
$upscope $end
$upscope $end
$scope module InstMem_Tb $end
$scope module m $end
$var reg 32 r \mem[63] [31:0] $end
$upscope $end
$upscope $end
$scope module InstMem_Tb $end
$scope module m $end
$var reg 32 s \mem[64] [31:0] $end
$upscope $end
$upscope $end
$scope module InstMem_Tb $end
$scope module m $end
$var reg 32 t \mem[65] [31:0] $end
$upscope $end
$upscope $end
$scope module InstMem_Tb $end
$scope module m $end
$var reg 32 u \mem[66] [31:0] $end
$upscope $end
$upscope $end
$scope module InstMem_Tb $end
$scope module m $end
$var reg 32 v \mem[67] [31:0] $end
$upscope $end
$upscope $end
$scope module InstMem_Tb $end
$scope module m $end
$var reg 32 w \mem[68] [31:0] $end
$upscope $end
$upscope $end
$scope module InstMem_Tb $end
$scope module m $end
$var reg 32 x \mem[69] [31:0] $end
$upscope $end
$upscope $end
$scope module InstMem_Tb $end
$scope module m $end
$var reg 32 y \mem[70] [31:0] $end
$upscope $end
$upscope $end
$scope module InstMem_Tb $end
$scope module m $end
$var reg 32 z \mem[71] [31:0] $end
$upscope $end
$upscope $end
$scope module InstMem_Tb $end
$scope module m $end
$var reg 32 { \mem[72] [31:0] $end
$upscope $end
$upscope $end
$scope module InstMem_Tb $end
$scope module m $end
$var reg 32 | \mem[73] [31:0] $end
$upscope $end
$upscope $end
$scope module InstMem_Tb $end
$scope module m $end
$var reg 32 } \mem[74] [31:0] $end
$upscope $end
$upscope $end
$scope module InstMem_Tb $end
$scope module m $end
$var reg 32 ~ \mem[75] [31:0] $end
$upscope $end
$upscope $end
$scope module InstMem_Tb $end
$scope module m $end
$var reg 32 !" \mem[76] [31:0] $end
$upscope $end
$upscope $end
$scope module InstMem_Tb $end
$scope module m $end
$var reg 32 "" \mem[77] [31:0] $end
$upscope $end
$upscope $end
$scope module InstMem_Tb $end
$scope module m $end
$var reg 32 #" \mem[78] [31:0] $end
$upscope $end
$upscope $end
$scope module InstMem_Tb $end
$scope module m $end
$var reg 32 $" \mem[79] [31:0] $end
$upscope $end
$upscope $end
$scope module InstMem_Tb $end
$scope module m $end
$var reg 32 %" \mem[80] [31:0] $end
$upscope $end
$upscope $end
$scope module InstMem_Tb $end
$scope module m $end
$var reg 32 &" \mem[81] [31:0] $end
$upscope $end
$upscope $end
$scope module InstMem_Tb $end
$scope module m $end
$var reg 32 '" \mem[82] [31:0] $end
$upscope $end
$upscope $end
$scope module InstMem_Tb $end
$scope module m $end
$var reg 32 (" \mem[83] [31:0] $end
$upscope $end
$upscope $end
$scope module InstMem_Tb $end
$scope module m $end
$var reg 32 )" \mem[84] [31:0] $end
$upscope $end
$upscope $end
$scope module InstMem_Tb $end
$scope module m $end
$var reg 32 *" \mem[85] [31:0] $end
$upscope $end
$upscope $end
$scope module InstMem_Tb $end
$scope module m $end
$var reg 32 +" \mem[86] [31:0] $end
$upscope $end
$upscope $end
$scope module InstMem_Tb $end
$scope module m $end
$var reg 32 ," \mem[87] [31:0] $end
$upscope $end
$upscope $end
$scope module InstMem_Tb $end
$scope module m $end
$var reg 32 -" \mem[88] [31:0] $end
$upscope $end
$upscope $end
$scope module InstMem_Tb $end
$scope module m $end
$var reg 32 ." \mem[89] [31:0] $end
$upscope $end
$upscope $end
$scope module InstMem_Tb $end
$scope module m $end
$var reg 32 /" \mem[90] [31:0] $end
$upscope $end
$upscope $end
$scope module InstMem_Tb $end
$scope module m $end
$var reg 32 0" \mem[91] [31:0] $end
$upscope $end
$upscope $end
$scope module InstMem_Tb $end
$scope module m $end
$var reg 32 1" \mem[92] [31:0] $end
$upscope $end
$upscope $end
$scope module InstMem_Tb $end
$scope module m $end
$var reg 32 2" \mem[93] [31:0] $end
$upscope $end
$upscope $end
$scope module InstMem_Tb $end
$scope module m $end
$var reg 32 3" \mem[94] [31:0] $end
$upscope $end
$upscope $end
$scope module InstMem_Tb $end
$scope module m $end
$var reg 32 4" \mem[95] [31:0] $end
$upscope $end
$upscope $end
$scope module InstMem_Tb $end
$scope module m $end
$var reg 32 5" \mem[96] [31:0] $end
$upscope $end
$upscope $end
$scope module InstMem_Tb $end
$scope module m $end
$var reg 32 6" \mem[97] [31:0] $end
$upscope $end
$upscope $end
$scope module InstMem_Tb $end
$scope module m $end
$var reg 32 7" \mem[98] [31:0] $end
$upscope $end
$upscope $end
$scope module InstMem_Tb $end
$scope module m $end
$var reg 32 8" \mem[99] [31:0] $end
$upscope $end
$upscope $end
$scope module InstMem_Tb $end
$scope module m $end
$var reg 32 9" \mem[100] [31:0] $end
$upscope $end
$upscope $end
$scope module InstMem_Tb $end
$scope module m $end
$var reg 32 :" \mem[101] [31:0] $end
$upscope $end
$upscope $end
$scope module InstMem_Tb $end
$scope module m $end
$var reg 32 ;" \mem[102] [31:0] $end
$upscope $end
$upscope $end
$scope module InstMem_Tb $end
$scope module m $end
$var reg 32 <" \mem[103] [31:0] $end
$upscope $end
$upscope $end
$scope module InstMem_Tb $end
$scope module m $end
$var reg 32 =" \mem[104] [31:0] $end
$upscope $end
$upscope $end
$scope module InstMem_Tb $end
$scope module m $end
$var reg 32 >" \mem[105] [31:0] $end
$upscope $end
$upscope $end
$scope module InstMem_Tb $end
$scope module m $end
$var reg 32 ?" \mem[106] [31:0] $end
$upscope $end
$upscope $end
$scope module InstMem_Tb $end
$scope module m $end
$var reg 32 @" \mem[107] [31:0] $end
$upscope $end
$upscope $end
$scope module InstMem_Tb $end
$scope module m $end
$var reg 32 A" \mem[108] [31:0] $end
$upscope $end
$upscope $end
$scope module InstMem_Tb $end
$scope module m $end
$var reg 32 B" \mem[109] [31:0] $end
$upscope $end
$upscope $end
$scope module InstMem_Tb $end
$scope module m $end
$var reg 32 C" \mem[110] [31:0] $end
$upscope $end
$upscope $end
$scope module InstMem_Tb $end
$scope module m $end
$var reg 32 D" \mem[111] [31:0] $end
$upscope $end
$upscope $end
$scope module InstMem_Tb $end
$scope module m $end
$var reg 32 E" \mem[112] [31:0] $end
$upscope $end
$upscope $end
$scope module InstMem_Tb $end
$scope module m $end
$var reg 32 F" \mem[113] [31:0] $end
$upscope $end
$upscope $end
$scope module InstMem_Tb $end
$scope module m $end
$var reg 32 G" \mem[114] [31:0] $end
$upscope $end
$upscope $end
$scope module InstMem_Tb $end
$scope module m $end
$var reg 32 H" \mem[115] [31:0] $end
$upscope $end
$upscope $end
$scope module InstMem_Tb $end
$scope module m $end
$var reg 32 I" \mem[116] [31:0] $end
$upscope $end
$upscope $end
$scope module InstMem_Tb $end
$scope module m $end
$var reg 32 J" \mem[117] [31:0] $end
$upscope $end
$upscope $end
$scope module InstMem_Tb $end
$scope module m $end
$var reg 32 K" \mem[118] [31:0] $end
$upscope $end
$upscope $end
$scope module InstMem_Tb $end
$scope module m $end
$var reg 32 L" \mem[119] [31:0] $end
$upscope $end
$upscope $end
$scope module InstMem_Tb $end
$scope module m $end
$var reg 32 M" \mem[120] [31:0] $end
$upscope $end
$upscope $end
$scope module InstMem_Tb $end
$scope module m $end
$var reg 32 N" \mem[121] [31:0] $end
$upscope $end
$upscope $end
$scope module InstMem_Tb $end
$scope module m $end
$var reg 32 O" \mem[122] [31:0] $end
$upscope $end
$upscope $end
$scope module InstMem_Tb $end
$scope module m $end
$var reg 32 P" \mem[123] [31:0] $end
$upscope $end
$upscope $end
$scope module InstMem_Tb $end
$scope module m $end
$var reg 32 Q" \mem[124] [31:0] $end
$upscope $end
$upscope $end
$scope module InstMem_Tb $end
$scope module m $end
$var reg 32 R" \mem[125] [31:0] $end
$upscope $end
$upscope $end
$scope module InstMem_Tb $end
$scope module m $end
$var reg 32 S" \mem[126] [31:0] $end
$upscope $end
$upscope $end
$scope module InstMem_Tb $end
$scope module m $end
$var reg 32 T" \mem[127] [31:0] $end
$upscope $end
$upscope $end
$enddefinitions $end
$comment Show the parameter values. $end
$dumpall
b100000 0
b10000000 /
b11101000110001000101111011010010110111001110011011101000100100101101110011010010111010000101110011101000111100001110100 #
b10000000 "
$end
#0
$dumpvars
b0 T"
b0 S"
b0 R"
b0 Q"
b0 P"
b0 O"
b0 N"
b0 M"
b0 L"
b0 K"
b0 J"
b0 I"
b0 H"
b0 G"
b0 F"
b0 E"
b0 D"
b0 C"
b0 B"
b0 A"
b0 @"
b0 ?"
b0 >"
b0 ="
b0 <"
b0 ;"
b0 :"
b0 9"
b0 8"
b0 7"
b0 6"
b0 5"
b0 4"
b0 3"
b0 2"
b0 1"
b0 0"
b0 /"
b0 ."
b0 -"
b0 ,"
b0 +"
b0 *"
b0 )"
b0 ("
b0 '"
b0 &"
b0 %"
b0 $"
b0 #"
b0 ""
b0 !"
b0 ~
b0 }
b0 |
b0 {
b0 z
b0 y
b0 x
b0 w
b0 v
b0 u
b0 t
b0 s
b0 r
b0 q
b0 p
b0 o
b0 n
b0 m
b0 l
b0 k
b0 j
b0 i
b0 h
b0 g
b0 f
b0 e
b0 d
b0 c
b0 b
b0 a
b0 `
b0 _
b0 ^
b0 ]
b0 \
b0 [
b0 Z
b0 Y
b0 X
b0 W
b0 V
b0 U
b0 T
b0 S
b0 R
b0 Q
b0 P
b0 O
b0 N
b0 M
b0 L
b0 K
b0 J
b0 I
b0 H
b0 G
b0 F
b0 E
b0 D
b0 C
b0 B
b0 A
b0 @
b0 ?
b0 >
b0 =
b0 <
b0 ;
b0 :
b0 9
b0 8
b0 7
b0 6
b0 5
b0 4
b11111111111111111111111111111111 3
bx 2
b10000000 1
b11111111111111111111111111111111 .
b0 -
b11111111111111111111111111111111 ,
b0 +
b10000000 *
b11111111111111111111111111111111 )
b0 (
1'
1&
b0 %
0$
b11111111111111111111111111111111 !
$end
#5
b11111111111111111111111111111111 3
1$
#6
b0 T"
b0 S"
b0 R"
b0 Q"
b0 P"
b0 O"
b0 N"
b0 M"
b0 L"
b0 K"
b0 J"
b0 I"
b0 H"
b0 G"
b0 F"
b0 E"
b0 D"
b0 C"
b0 B"
b0 A"
b0 @"
b0 ?"
b0 >"
b0 ="
b0 <"
b0 ;"
b0 :"
b0 9"
b0 8"
b0 7"
b0 6"
b0 5"
b0 4"
b0 3"
b0 2"
b0 1"
b0 0"
b0 /"
b0 ."
b0 -"
b0 ,"
b0 +"
b0 *"
b0 )"
b0 ("
b0 '"
b0 &"
b0 %"
b0 $"
b0 #"
b0 ""
b0 !"
b0 ~
b0 }
b0 |
b0 {
b0 z
b0 y
b0 x
b0 w
b0 v
b0 u
b0 t
b0 s
b0 r
b0 q
b0 p
b0 o
b0 n
b0 m
b0 l
b0 k
b0 j
b0 i
b0 h
b0 g
b0 f
b0 e
b0 d
b0 c
b0 b
b0 a
b0 `
b0 _
b0 ^
b0 ]
b0 \
b0 [
b0 Z
b0 Y
b0 X
b0 W
b0 V
b0 U
b0 T
b0 S
b0 R
b0 Q
b0 P
b0 O
b0 N
b0 M
b0 L
b0 K
b0 J
b0 I
b0 H
b0 G
b0 F
b0 E
b0 D
b0 C
b0 B
b0 A
b0 @
b0 ?
b0 >
b0 =
b0 <
b0 ;
b0 :
b0 9
b0 8
b0 7
b0 6
b0 5
b0 4
b0 3
b0 !
b0 ,
b10000000 2
0&
#10
0$
#15
1$
#16
b10001111100110111 )
b10001111100110111 .
0'
1&
#20
0$
#25
1$
#26
b1000000011010010111 )
b1000000011010010111 .
b1 (
b1 -
#30
0$
#35
1$
#36
b1000101101100001110000011101111 )
b1000101101100001110000011101111 .
b10 (
b10 -
#40
0$
#45
1$
#46
b110000001010100111001100011 )
b110000001010100111001100011 .
b11 (
b11 -
#50
0$
#55
1$
#56
b1000000111001111011011110000011 )
b1000000111001111011011110000011 .
b100 (
b100 -
#60
0$
#65
1$
#66
b111101010000000110100011 )
b111101010000000110100011 .
b101 (
b101 -
#70
0$
#75
1$
#76
b1000001010000011110010011 )
b1000001010000011110010011 .
b110 (
b110 -
#80
0$
#85
1$
#86
b11011001101111000100001100011 )
b11011001101111000100001100011 .
b111 (
b111 -
#90
0$
#95
1$
#96
b11111111111101001100010010010011 )
b11111111111101001100010010010011 .
b1000 (
b1000 -
#100
0$
#105
1$
#106
b100111001111011110110011 )
b100111001111011110110011 .
b1001 (
b1001 -
#110
0$
#115
1$
#116
b110001010110011100110011 )
b110001010110011100110011 .
b1010 (
b1010 -
#120
0$
#125
1$
#126
b10010100000000011100010011 )
b10010100000000011100010011 .
b1011 (
b1011 -
#130
0$
#135
1$
#136
b110001010110011100110011 )
b110001010110011100110011 .
b1100 (
b1100 -
#140
0$
#145
1$
#146
b101010100111000000011 )
b101010100111000000011 .
b1101 (
b1101 -
#150
0$
#155
1$
#156
b10101110001011110010011 )
b10101110001011110010011 .
b1110 (
b1110 -
#160
0$
#165
1$
#166
b1000011001010001000100011 )
b1000011001010001000100011 .
b1111 (
b1111 -
#170
0$
#175
1$
#176
b10011 )
b10011 .
b10000 (
b10000 -
#180
0$
#185
1$
#186
b10001 (
b10001 -
#190
0$
#195
1$
#196
b10010 (
b10010 -
#200
0$
#205
1$
#206
b10011 (
b10011 -
#210
0$
#215
1$
#216
b10100 (
b10100 -
#220
0$
#225
1$
#226
b10101 (
b10101 -
#230
0$
#235
1$
#236
b10110 (
b10110 -
#240
0$
#245
1$
#246
b10111 (
b10111 -
#250
0$
#255
1$
#256
b11000 (
b11000 -
#260
0$
#265
1$
#266
b11001 (
b11001 -
#270
0$
#275
1$
#276
b11010 (
b11010 -
#280
0$
#285
1$
#286
b11011 (
b11011 -
#290
0$
#295
1$
#296
b11100 (
b11100 -
#300
0$
#305
1$
#306
b11101 (
b11101 -
#310
0$
#315
1$
#316
b11110 (
b11110 -
#320
0$
#325
1$
#326
b11111 (
b11111 -
#330
0$
#335
1$
#336
b100000 (
b100000 -
#340
0$
#345
1$
#346
b100001 (
b100001 -
#350
0$
#355
1$
#356
b100010 (
b100010 -
#360
0$
#365
1$
#366
b100011 (
b100011 -
#370
0$
#375
1$
#376
b100100 (
b100100 -
#380
0$
#385
1$
#386
b100101 (
b100101 -
#390
0$
#395
1$
#396
b100110 (
b100110 -
#400
0$
#405
1$
#406
b100111 (
b100111 -
#410
0$
#415
1$
#416
b101000 (
b101000 -
#420
0$
#425
1$
#426
b101001 (
b101001 -
#430
0$
#435
1$
#436
b101010 (
b101010 -
#440
0$
#445
1$
#446
b101011 (
b101011 -
#450
0$
#455
1$
#456
b101100 (
b101100 -
#460
0$
#465
1$
#466
b101101 (
b101101 -
#470
0$
#475
1$
#476
b101110 (
b101110 -
#480
0$
#485
1$
#486
b101111 (
b101111 -
#490
0$
#495
1$
#496
b110000 (
b110000 -
#500
0$
#505
1$
#506
b110001 (
b110001 -
#510
0$
#515
1$
#516
b110010 (
b110010 -
#520
0$
#525
1$
#526
b110011 (
b110011 -
#530
0$
#535
1$
#536
b110100 (
b110100 -
#540
0$
#545
1$
#546
b110101 (
b110101 -
#550
0$
#555
1$
#556
b110110 (
b110110 -
#560
0$
#565
1$
#566
b110111 (
b110111 -
#570
0$
#575
1$
#576
b111000 (
b111000 -
#580
0$
#585
1$
#586
b111001 (
b111001 -
#590
0$
#595
1$
#596
b111010 (
b111010 -
#600
0$
#605
1$
#606
b111011 (
b111011 -
#610
0$
#615
1$
#616
b111100 (
b111100 -
#620
0$
#625
1$
#626
b111101 (
b111101 -
#630
0$
#635
1$
#636
b111110 (
b111110 -
#640
0$
#645
1$
#646
b111111 (
b111111 -
#650
0$
#655
1$
#656
b1000000 (
b1000000 -
#660
0$
#665
1$
#666
b1000001 (
b1000001 -
#670
0$
#675
1$
#676
b1000010 (
b1000010 -
#680
0$
#685
1$
#686
b1000011 (
b1000011 -
#690
0$
#695
1$
#696
b1000100 (
b1000100 -
#700
0$
#705
1$
#706
b1000101 (
b1000101 -
#710
0$
#715
1$
#716
b1000110 (
b1000110 -
#720
0$
#725
1$
#726
b1000111 (
b1000111 -
#730
0$
#735
1$
#736
b1001000 (
b1001000 -
#740
0$
#745
1$
#746
b1001001 (
b1001001 -
#750
0$
#755
1$
#756
b1001010 (
b1001010 -
#760
0$
#765
1$
#766
b1001011 (
b1001011 -
#770
0$
#775
1$
#776
b1001100 (
b1001100 -
#780
0$
#785
1$
#786
b1001101 (
b1001101 -
#790
0$
#795
1$
#796
b1001110 (
b1001110 -
#800
0$
#805
1$
#806
b1001111 (
b1001111 -
#810
0$
#815
1$
#816
b1010000 (
b1010000 -
#820
0$
#825
1$
#826
b1010001 (
b1010001 -
#830
0$
#835
1$
#836
b1010010 (
b1010010 -
#840
0$
#845
1$
#846
b1010011 (
b1010011 -
#850
0$
#855
1$
#856
b1010100 (
b1010100 -
#860
0$
#865
1$
#866
b1010101 (
b1010101 -
#870
0$
#875
1$
#876
b1010110 (
b1010110 -
#880
0$
#885
1$
#886
b1010111 (
b1010111 -
#890
0$
#895
1$
#896
b1011000 (
b1011000 -
#900
0$
#905
1$
#906
b1011001 (
b1011001 -
#910
0$
#915
1$
#916
b1011010 (
b1011010 -
#920
0$
#925
1$
#926
b1011011 (
b1011011 -
#930
0$
#935
1$
#936
b1011100 (
b1011100 -
#940
0$
#945
1$
#946
b1011101 (
b1011101 -
#950
0$
#955
1$
#956
b1011110 (
b1011110 -
#960
0$
#965
1$
#966
b1011111 (
b1011111 -
#970
0$
#975
1$
#976
b1100000 (
b1100000 -
#980
0$
#985
1$
#986
b1100001 (
b1100001 -
#990
0$
#995
1$
#996
b1100010 (
b1100010 -
#1000
0$
#1005
1$
#1006
b1100011 (
b1100011 -
#1010
0$
#1015
1$
#1016
b1100100 (
b1100100 -
#1020
0$
#1025
1$
#1026
b1100101 (
b1100101 -
#1030
0$
#1035
1$
#1036
b1100110 (
b1100110 -
#1040
0$
#1045
1$
#1046
b1100111 (
b1100111 -
#1050
0$
#1055
1$
#1056
b1101000 (
b1101000 -
#1060
0$
#1065
1$
#1066
b1101001 (
b1101001 -
#1070
0$
#1075
1$
#1076
b1101010 (
b1101010 -
#1080
0$
#1085
1$
#1086
b1101011 (
b1101011 -
#1090
0$
#1095
1$
#1096
b1101100 (
b1101100 -
#1100
0$
#1105
1$
#1106
b1101101 (
b1101101 -
#1110
0$
#1115
1$
#1116
b1101110 (
b1101110 -
#1120
0$
#1125
1$
#1126
b1101111 (
b1101111 -
#1130
0$
#1135
1$
#1136
b1110000 (
b1110000 -
#1140
0$
#1145
1$
#1146
b1110001 (
b1110001 -
#1150
0$
#1155
1$
#1156
b1110010 (
b1110010 -
#1160
0$
#1165
1$
#1166
b1110011 (
b1110011 -
#1170
0$
#1175
1$
#1176
b1110100 (
b1110100 -
#1180
0$
#1185
1$
#1186
b1110101 (
b1110101 -
#1190
0$
#1195
1$
#1196
b1110110 (
b1110110 -
#1200
0$
#1205
1$
#1206
b1110111 (
b1110111 -
#1210
0$
#1215
1$
#1216
b1111000 (
b1111000 -
#1220
0$
#1225
1$
#1226
b1111001 (
b1111001 -
#1230
0$
#1235
1$
#1236
b1111010 (
b1111010 -
#1240
0$
#1245
1$
#1246
b1111011 (
b1111011 -
#1250
0$
#1255
1$
#1256
b1111100 (
b1111100 -
#1260
0$
#1265
1$
#1266
b1111101 (
b1111101 -
#1270
0$
#1275
1$
#1276
b1111110 (
b1111110 -
#1280
0$
#1285
1$
#1286
b1111111 (
b1111111 -
#1290
0$
#1295
1$
#1300
0$
#1305
1$
#1306
b1 %
b1 +
#1310
0$
#1315
1$
#1316
b10 %
b10 +
#1320
0$
#1325
1$
#1326
b11 %
b11 +
#1330
0$
#1335
1$
#1336
b100 %
b100 +
#1340
0$
#1345
1$
#1346
b101 %
b101 +
#1350
0$
#1355
1$
#1356
b110 %
b110 +
#1360
0$
#1365
1$
#1366
b111 %
b111 +
#1370
0$
#1375
1$
#1376
b1000 %
b1000 +
#1380
0$
#1385
1$
#1386
b1001 %
b1001 +
#1390
0$
#1395
1$
#1396
b1010 %
b1010 +
#1400
0$
#1405
1$
#1406
b1011 %
b1011 +
#1410
0$
#1415
1$
#1416
b1100 %
b1100 +
#1420
0$
#1425
1$
#1426
b1101 %
b1101 +
#1430
0$
#1435
1$
#1436
b1110 %
b1110 +
#1440
0$
#1445
1$
#1446
b1111 %
b1111 +
#1450
0$
#1455
1$
#1456
b10000 %
b10000 +
#1460
0$
#1465
1$
#1466
b10001 %
b10001 +
#1470
0$
#1475
1$
#1476
b10010 %
b10010 +
#1480
0$
#1485
1$
#1486
b10011 %
b10011 +
#1490
0$
#1495
1$
#1496
b10100 %
b10100 +
#1500
0$
#1505
1$
#1506
b10101 %
b10101 +
#1510
0$
#1515
1$
#1516
b10110 %
b10110 +
#1520
0$
#1525
1$
#1526
b10111 %
b10111 +
#1530
0$
#1535
1$
#1536
b11000 %
b11000 +
#1540
0$
#1545
1$
#1546
b11001 %
b11001 +
#1550
0$
#1555
1$
#1556
b11010 %
b11010 +
#1560
0$
#1565
1$
#1566
b11011 %
b11011 +
#1570
0$
#1575
1$
#1576
b11100 %
b11100 +
#1580
0$
#1585
1$
#1586
b11101 %
b11101 +
#1590
0$
#1595
1$
#1596
b11110 %
b11110 +
#1600
0$
#1605
1$
#1606
b11111 %
b11111 +
#1610
0$
#1615
1$
